{
  "project_info": {
    "project_number": "1021645643028",
    "project_id": "authorisationapp-3cc28",
    "storage_bucket": "authorisationapp-3cc28.appspot.com"
  },
  "client": [
    {
      "client_info": {
        "mobilesdk_app_id": "1:1021645643028:android:e8363add876891e5563601",
        "android_client_info": {
          "package_name": "com.example.assignmentnine"
        }
      },
      "oauth_client": [
        {
          "client_id": "1021645643028-1t70nhdgnhrb99sji07gg9r6db9e33sn.apps.googleusercontent.com",
          "client_type": 1,
          "android_info": {
            "package_name": "com.example.assignmentnine",
            "certificate_hash": "b6ac56afb69acc34dbb3d10ae86e9f6c2aab19a1"
          }
        },
        {
          "client_id": "1021645643028-n1ues9c03s4kn0etmmqa4t72dmac3vql.apps.googleusercontent.com",
          "client_type": 3
        }
      ],
      "api_key": [
        {
          "current_key": "AIzaSyB_Tzp6Zrsp5NYzdXc3ko8zEiKuTpM0gfw"
        }
      ],
      "services": {
        "appinvite_service": {
          "other_platform_oauth_client": [
            {
              "client_id": "1021645643028-n1ues9c03s4kn0etmmqa4t72dmac3vql.apps.googleusercontent.com",
              "client_type": 3
            }
          ]
        }
      }
    }
  ],
  "configuration_version": "1"
}